{
	"info": {
		"_postman_id": "39c85535-95e9-49b8-b70a-c1f244426e0e",
		"name": "phone-book",
		"schema": "https://schema.getpostman.com/json/collection/v2.1.0/collection.json"
	},
	"item": [
		{
			"name": "contacts-add",
			"request": {
				"method": "PUT",
				"header": [],
				"body": {
					"mode": "raw",
					"raw": "{\n    \"name\":\"pariya\",\n    \"phoneNumber\": \"09351112233\",\n    \"email\":\"pariya@gmail.com\",\n    \"organization\":\"asredanesh\",\n    \"github\":\"pariyaalishah\"\n}",
					"options": {
						"raw": {
							"language": "json"
						}
					}
				},
				"url": {
					"raw": "localhost:8080/contacts",
					"host": [
						"localhost"
					],
					"port": "8080",
					"path": [
						"contacts"
					]
				}
			},
			"response": []
		},
		{
			"name": "contacts-search",
			"request": {
				"method": "POST",
				"header": [],
				"body": {
					"mode": "raw",
					"raw": "    {\n        \"name\": \"\",\n        \"phoneNumber\": \"\",\n        \"email\": \"\",\n        \"organization\": \"asredanesh\",\n        \"github\": \"\"\n    }",
					"options": {
						"raw": {
							"language": "json"
						}
					}
				},
				"url": {
					"raw": "localhost:8080/contacts/search",
					"host": [
						"localhost"
					],
					"port": "8080",
					"path": [
						"contacts",
						"search"
					]
				}
			},
			"response": []
		}
	]
}